Cassie Winn R Assignment
…
file.size("./data/fang_et_al_genotypex.txt")

## [1] NA

file.size("./data/snp_position.txt")

## [1] 82763

Determine Number of Lines

Simply type the name of the dataframe and it will give the dimensions for lines x columns (example: A tibble: 983 x 15)

genotypes

## # A tibble: 2,782 x 986
##    Sample_ID JG_OTU Group abph1.20 abph1.22 ae1.3 ae1.4 ae1.5 an1.4 ba1.6
##    <chr>     <chr>  <chr> <chr>    <chr>    <chr> <chr> <chr> <chr> <chr>
##  1 SL-15     T-aus TRIPS ?/?      ?/?      T/T   G/G   T/T   C/C   ?/?  
##  2 SL-16     T-aus TRIPS ?/?      ?/?      T/T   ?/?   T/T   C/C   A/G  
##  3 SL-11     T-bra TRIPS ?/?      ?/?      T/T   G/G   T/T   ?/?   G/G  
##  4 SL-12     T-bra TRIPS ?/?      ?/?      T/T   G/G   T/T   C/C   G/G  
##  5 SL-18     T-cund TRIPS ?/?      ?/?      T/T   G/G   T/T   C/C   ?/?  
##  6 SL-2      T-dac TRIPS ?/?      ?/?      T/T   G/G   T/T   C/C   A/G  
##  7 SL-4      T-dac TRIPS ?/?      ?/?      T/T   G/G   T/T   C/C   G/G  
##  8 SL-6      T-dac TRIPS ?/?      ?/?      T/T   G/G   T/T   C/C   ?/?  
##  9 SL-7      T-dac TRIPS ?/?      ?/?      T/T   G/G   T/T   C/C   G/G  
## 10 SL-5      T-dac TRIPS ?/?      ?/?      T/T   G/G   T/T   C/C   ?/?  
## # ... with 2,772 more rows, and 976 more variables: ba1.9 <chr>,
## #   bt2.5 <chr>, bt2.7 <chr>, bt2.8 <chr>, Fea2.1 <chr>, Fea2.5 <chr>,
## #   id1.3 <chr>, lg2.11 <chr>, lg2.2 <chr>, pbf1.1 <chr>, pbf1.2 <chr>,
## #   pbf1.3 <chr>, pbf1.5 <chr>, pbf1.6 <chr>, pbf1.7 <chr>, pbf1.8 <chr>,
## #   PZA00003.11 <chr>, PZA00004.2 <chr>, PZA00005.8 <chr>,
## #   PZA00005.9 <chr>, PZA00006.13 <chr>, PZA00006.14 <chr>,
## #   PZA00008.1 <chr>, PZA00010.5 <chr>, PZA00013.10 <chr>,
## #   PZA00013.11 <chr>, PZA00013.9 <chr>, PZA00015.4 <chr>,
## #   PZA00017.1 <chr>, PZA00018.5 <chr>, PZA00029.11 <chr>,
…
snp_position

## # A tibble: 983 x 15
##    SNP_ID cdv_marker_id Chromosome Position alt_pos mult_positions amplicon
##    <chr>          <int> <chr>      <chr>    <chr>   <chr>          <chr>   
##  1 abph1          5976 2          27403404 <NA>    <NA>           abph1   
##  2 abph1          5978 2          27403892 <NA>    <NA>           abph1   
##  3 ae1.3           6605 5          1678897 <NA>    <NA>           ae1     
##  4 ae1.4           6606 5          1678896 <NA>    <NA>           ae1     
##  5 ae1.5           6607 5          1678898 <NA>    <NA>           ae1     
##  6 an1.4           5982 1          2404985 <NA>    <NA>           an1     
##  7 ba1.6           3463 3          1813629 <NA>    <NA>           ba1     
##  8 ba1.9           3466 3          1813626 <NA>    <NA>           ba1     
##  9 bt2.5           5983 4          66290049 <NA>    <NA>           bt2     
## 10 bt2.7           5985 4          66290994 <NA>    <NA>           bt2     
## # ... with 973 more rows, and 8 more variables:
## #   cdv_map_feature.name <chr>, gene <chr>, `candidate/random` <chr>,
## #   Genaissance_daa_id <int>, Sequenom_daa_id <int>,
## #   count_amplicons <int>, count_cmf <int>, count_gene <int>
…
